{
    "photos": {
        "page": 1,
        "pages": 9223,
        "perpage": 20,
        "total": "184446",
        "photo": [
            {
                "id": "44946149151",
                "owner": "30074022@N08",
                "secret": "3edd9617ed",
                "server": "1953",
                "farm": 2,
                "title": "Cracks In The Façade",
                "ispublic": 1,
                "isfriend": 0,
                "isfamily": 0,
                "latitude": 40.171027,
                "longitude": -74.010528
            },
            {
                "id": "44946149151",
                "owner": "30074022@N08",
                "secret": "3edd9617ed",
                "server": "1953",
                "farm": 2,
                "title": "Cracks In The Façade",
                "ispublic": 1,
                "isfriend": 0,
                "isfamily": 0,
                "latitude": 40.170027,
                "longitude": -74.010528
            },
            {
                "id": "44946149151",
                "owner": "30074022@N08",
                "secret": "3edd9617ed",
                "server": "1953",
                "farm": 2,
                "title": "Cracks In The Façade",
                "ispublic": 1,
                "isfriend": 0,
                "isfamily": 0,
                "latitude": 40.170027,
                "longitude": -74.011528
            },
            {
                "id": "44946149151",
                "owner": "30074022@N08",
                "secret": "3edd9617ed",
                "server": "1953",
                "farm": 2,
                "title": "Cracks In The Façade",
                "ispublic": 1,
                "isfriend": 0,
                "isfamily": 0,
                "latitude": 40.171027,
                "longitude": -74.011528
            },
        ]
    },
    "stat": "ok"
}
